<svg width="157" height="65" viewBox="0 0 157 65" fill="none" xmlns="http://www.w3.org/2000/svg">
<path fill-rule="evenodd" clip-rule="evenodd" d="M27.6805 0H42.1604V42.2693H0.145529L0 27.4261L27.6805 0Z" fill="url(#paint0_linear)"/>
<path d="M23.8757 1.70215L2.07996 23.5186V1.70215H23.8757Z" fill="#667FC4"/>
<path d="M4.84561 61.2547V53.8624H5.82858V61.2547H9.4668V53.8624H10.447V62.0398H0.235046V53.8624H1.2154V61.2547H4.84546H4.84561ZM15.0194 53.8624H18.3388C19.3818 53.8624 20.1226 54.056 20.5638 54.4456C20.9205 54.7646 21.0975 55.2281 21.0975 55.8357C21.0975 56.3674 20.9014 56.7979 20.5093 57.1278C20.158 57.4166 19.6842 57.5911 19.0877 57.6565V57.7356C19.8856 57.82 20.482 58.0681 20.8739 58.4768C21.2007 58.8177 21.3615 59.2483 21.3615 59.7635C21.3615 60.5294 21.0701 61.1127 20.4846 61.5135C19.9727 61.8651 19.2838 62.0396 18.4177 62.0396H15.0192V53.8622L15.0194 53.8624ZM15.986 54.6311V57.3622H17.8842C18.6548 57.3622 19.2403 57.2096 19.638 56.907C19.9675 56.6508 20.1335 56.3182 20.1335 55.9094C20.1335 55.4407 19.9647 55.108 19.6298 54.9118C19.3221 54.7236 18.8399 54.6311 18.1865 54.6311H15.986ZM15.986 58.1146V61.271H18.2898C18.987 61.271 19.518 61.1157 19.8857 60.8075C20.2044 60.5432 20.365 60.1834 20.365 59.7336C20.365 59.2075 20.1335 58.7986 19.6706 58.5125C19.2511 58.2481 18.6765 58.1146 17.9467 58.1146H15.986ZM31.8103 58.0328H25.8818C25.8818 59.1748 26.1596 60.0525 26.7123 60.6686C27.1754 61.1784 27.7663 61.4346 28.4852 61.4346C29.6588 61.4346 30.4296 60.8513 30.7972 59.6846L31.7476 60.0444C31.184 61.5053 30.0892 62.236 28.4688 62.236C27.3251 62.236 26.4237 61.8025 25.7648 60.9358C25.1793 60.1698 24.8851 59.1804 24.8851 57.9674C24.8851 56.5827 25.2609 55.4897 26.0098 54.6883C26.6443 54.007 27.434 53.6661 28.3791 53.6661C29.4601 53.6661 30.3179 54.0831 30.9579 54.9201C31.5271 55.6642 31.8103 56.6155 31.8103 57.7686V58.0329V58.0328ZM30.7972 57.2642C30.7237 56.3184 30.446 55.6014 29.9666 55.1136C29.5582 54.6937 29.0354 54.4839 28.3954 54.4839C27.6628 54.4839 27.0664 54.7674 26.609 55.3371C26.206 55.8303 25.9745 56.4737 25.9145 57.2643H30.7972V57.2642ZM37.7548 50.1171C37.8284 50.9566 38.2478 51.3765 39.0076 51.3765C39.7673 51.3765 40.1921 50.9566 40.2849 50.1171H40.8431C40.8431 50.8313 40.6632 51.3655 40.3066 51.7227C39.9935 52.0361 39.5604 52.1942 39.0077 52.1942C38.384 52.1942 37.9157 51.9898 37.6027 51.5781C37.333 51.2209 37.1969 50.7358 37.1969 50.1171H37.7551H37.7548ZM35.8405 53.8624H36.7746V58.5098L36.7256 61.0258H36.8699C36.9708 60.835 37.1695 60.4343 37.4664 59.8264C37.6761 59.412 37.8531 59.0686 38.0028 58.7987L40.6415 53.8624H42.1502V62.0398H41.2161V57.0979L41.2651 54.6474H41.1208C40.7449 55.4843 40.3908 56.2092 40.0614 56.8252L37.213 62.0396H35.8406V53.8622L35.8405 53.8624ZM53.0319 53.8624V62.0398H52.0353V58.0984H47.7188V62.0398H46.7222V53.8624H47.7188V57.2969H52.0353V53.8624H53.0319ZM57.3701 55.7596C57.8604 54.364 58.9332 53.6661 60.5862 53.6661C62.517 53.6661 63.4837 54.5711 63.4837 56.3811V59.2622C63.4837 60.3525 63.5491 61.2792 63.6825 62.0398H62.732C62.6639 61.7262 62.6013 61.2465 62.5497 60.6005C61.8307 61.6908 60.8475 62.236 59.5977 62.236C58.729 62.236 58.0672 61.985 57.6097 61.4864C57.2232 61.0666 57.027 60.5242 57.027 59.8646C57.027 58.3873 57.9474 57.4931 59.7883 57.1851C60.5073 57.0624 61.4113 56.9725 62.5007 56.9208V56.4819C62.5007 55.7078 62.3318 55.1681 61.9914 54.8655C61.6919 54.6012 61.218 54.4675 60.5699 54.4675C59.4016 54.4675 58.6501 55.0128 58.3206 56.103L57.3701 55.7596ZM62.5007 57.673C61.681 57.6893 60.8503 57.7766 60.0035 57.9346C58.6965 58.2017 58.0401 58.8286 58.0401 59.8154C58.0401 60.3469 58.2117 60.7559 58.552 61.0448C58.8543 61.3037 59.2629 61.4344 59.772 61.4344C60.8694 61.4344 61.7789 60.8456 62.5007 59.6655V57.673ZM73.1157 53.8624V62.0398H72.1489V58.2782H70.387C70.1882 58.2782 70.0412 58.2728 69.9378 58.2618L68.1132 62.0398H67.0186L68.9819 58.1502C67.8164 57.8993 67.2335 57.2016 67.2335 56.0595C67.2335 55.3289 67.4895 54.7729 68.0015 54.3886C68.4726 54.0372 69.1453 53.8625 70.0112 53.8625H73.1157V53.8624ZM72.1489 54.6474H70.1229C68.873 54.6474 68.2467 55.1217 68.2467 56.073C68.2467 57.0186 68.8949 57.4931 70.1855 57.4931H72.1489V54.6474ZM88.4227 60.7641V64.9998H87.456V60.7966C86.8868 61.7671 86.0753 62.2523 85.0242 62.2523C84.0139 62.2523 83.2106 61.8189 82.6142 60.9521C82.0832 60.1808 81.8163 59.1804 81.8163 57.9511C81.8163 56.5473 82.1649 55.4516 82.8619 54.6638C83.4421 53.9988 84.1665 53.6661 85.0406 53.6661C86.0971 53.6661 86.9033 54.1512 87.456 55.1217V49.9045H88.4227V55.1708C88.9919 54.1676 89.798 53.6661 90.8409 53.6661C91.8622 53.6661 92.6683 54.094 93.2645 54.95C93.7955 55.7214 94.0624 56.7216 94.0624 57.9511C94.0624 59.3549 93.7138 60.4561 93.0168 61.2547C92.4367 61.9198 91.7122 62.2523 90.8409 62.2523C89.7925 62.2523 88.9863 61.7561 88.4227 60.7641ZM87.456 59.7445V56.1574C86.8815 55.0644 86.1352 54.5166 85.2147 54.5166C84.4551 54.5166 83.8559 54.8546 83.4203 55.5279C83.0255 56.1383 82.8294 56.9534 82.8294 57.9674C82.8294 59.1258 83.0826 60.0117 83.5865 60.6278C84.0085 61.1429 84.5505 61.4019 85.2149 61.4019C86.1463 61.4019 86.8925 60.8485 87.4562 59.7447L87.456 59.7445ZM88.4227 59.7445C88.9863 60.8485 89.738 61.4018 90.6803 61.4018C91.4346 61.4018 92.0282 61.0666 92.4585 60.3987C92.8532 59.7854 93.0494 58.9758 93.0494 57.9672C93.0494 56.8089 92.7987 55.9202 92.3005 55.2959C91.8838 54.7754 91.35 54.5164 90.6966 54.5164C89.7652 54.5164 89.0082 55.0642 88.4227 56.1573V59.7444V59.7445ZM97.875 55.7594C98.3653 54.3638 99.438 53.666 101.091 53.666C103.022 53.666 103.989 54.571 103.989 56.3809V59.2621C103.989 60.3523 104.054 61.2791 104.187 62.0396H103.237C103.169 61.7261 103.106 61.2464 103.055 60.6004C102.336 61.6906 101.352 62.2358 100.103 62.2358C99.2338 62.2358 98.5721 61.9849 98.1146 61.4862C97.728 61.0665 97.5319 60.524 97.5319 59.8645C97.5319 58.3871 98.4523 57.4929 100.293 57.185C101.012 57.0623 101.916 56.9724 103.006 56.9206V56.4818C103.006 55.7076 102.837 55.168 102.496 54.8654C102.197 54.601 101.723 54.4674 101.075 54.4674C99.9065 54.4674 99.155 55.0126 98.8254 56.1029L97.875 55.7594ZM103.006 57.6728C102.186 57.6892 101.355 57.7764 100.508 57.9344C99.2013 58.2015 98.545 58.8285 98.545 59.8153C98.545 60.3468 98.7166 60.7557 99.0569 61.0446C99.3592 61.3036 99.7678 61.4343 100.277 61.4343C101.374 61.4343 102.284 60.8454 103.006 59.6653V57.6728ZM108.988 55.3668C109.271 54.8272 109.65 54.4128 110.121 54.1238C110.57 53.8513 111.061 53.715 111.6 53.715C112.695 53.715 113.547 54.1374 114.16 54.9852C114.696 55.7375 114.966 56.7214 114.966 57.9344C114.966 59.33 114.601 60.4231 113.871 61.2135C113.25 61.8841 112.46 62.2193 111.502 62.2193C110.38 62.2193 109.506 61.7805 108.877 60.9C108.318 60.1123 108.041 59.0574 108.041 57.7354C108.041 55.0723 108.454 53.2242 109.285 52.1911C109.764 51.5561 110.486 51.177 111.455 51.0491L112.515 50.9126C113.048 50.8582 113.427 50.7437 113.656 50.5694C113.811 50.4467 113.95 50.2477 114.072 49.9697L114.71 50.2723C114.535 50.8011 114.293 51.1799 113.982 51.409C113.675 51.6379 113.247 51.7796 112.7 51.8314L111.534 51.9431C110.034 52.0985 109.187 53.2405 108.988 55.3667V55.3668ZM111.551 54.5327C110.742 54.5327 110.116 54.8708 109.666 55.5467C109.269 56.1491 109.07 56.9507 109.07 57.9509C109.07 59.1011 109.321 59.9816 109.819 60.595C110.244 61.121 110.805 61.3854 111.502 61.3854C112.305 61.3854 112.924 61.0448 113.354 60.3633C113.732 59.7609 113.92 58.9569 113.92 57.9509C113.92 56.7897 113.683 55.912 113.209 55.315C112.801 54.7945 112.248 54.5327 111.551 54.5327ZM120.001 53.8622V55.1706C120.644 54.1674 121.482 53.666 122.514 53.666C123.541 53.666 124.353 54.0883 124.949 54.9335C125.485 55.6995 125.752 56.6943 125.752 57.9181C125.752 59.3246 125.393 60.4259 124.668 61.2299C124.067 61.9004 123.323 62.2357 122.435 62.2357C121.42 62.2357 120.619 61.7395 120.034 60.7474V64.9995H119.02V53.8619H120.001L120.001 53.8622ZM120.034 56.1927V59.7826C120.646 60.8402 121.398 61.3691 122.291 61.3691C123.051 61.3691 123.653 61.0338 124.094 60.3633C124.505 59.7527 124.709 58.9404 124.709 57.9318C124.709 56.7816 124.464 55.8983 123.974 55.2824C123.565 54.7726 123.034 54.5164 122.386 54.5164C121.42 54.5164 120.635 55.0752 120.034 56.1927ZM129.815 53.8622H130.749V58.5097L130.701 61.0256H130.845C130.946 60.8348 131.144 60.4342 131.441 59.8262C131.651 59.4119 131.828 59.0685 131.978 58.7986L134.616 53.8622H136.125V62.0396H135.191V57.0977L135.24 54.6473H135.096C134.72 55.4841 134.366 56.2091 134.036 56.825L131.188 62.0395H129.816V53.8621L129.815 53.8622ZM143.423 57.5421L141.661 59.4037V62.0396H140.697V53.8622H141.661V58.3107L145.667 53.8622H146.855L144.079 56.9206L147.119 62.0396H145.994L143.423 57.5421ZM150.381 55.7594C150.871 54.3638 151.944 53.666 153.597 53.666C155.528 53.666 156.495 54.571 156.495 56.3809V59.2621C156.495 60.3523 156.56 61.2791 156.693 62.0396H155.743C155.675 61.7261 155.612 61.2464 155.561 60.6004C154.842 61.6906 153.858 62.2358 152.609 62.2358C151.74 62.2358 151.078 61.9849 150.621 61.4862C150.234 61.0665 150.038 60.524 150.038 59.8645C150.038 58.3871 150.958 57.4929 152.799 57.185C153.518 57.0623 154.422 56.9724 155.512 56.9206V56.4818C155.512 55.7076 155.343 55.168 155.002 54.8654C154.703 54.601 154.229 54.4674 153.581 54.4674C152.412 54.4674 151.661 55.0126 151.331 56.1029L150.381 55.7594ZM155.512 57.6728C154.692 57.6892 153.861 57.7764 153.014 57.9344C151.707 58.2015 151.051 58.8285 151.051 59.8153C151.051 60.3468 151.223 60.7557 151.563 61.0446C151.865 61.3036 152.274 61.4343 152.783 61.4343C153.88 61.4343 154.79 60.8454 155.512 59.6653V57.6728Z" fill="#424242"/>
<path d="M77.4417 4.9126L74.6275 12.0239C74.3508 12.8551 73.9816 13.8248 73.5202 14.887L66.0465 32.8503L56.7273 11.239L53.8671 4.9126H49.0231L50.6377 8.69917C50.8684 9.11474 51.0991 9.57656 51.2836 10.1307C51.5604 10.7772 51.745 11.3313 51.9296 11.7469L52.2986 12.4397L63.4631 38.1609H64.9855L74.6276 15.2103L78.9643 4.9126H77.4418H77.4417ZM82.3317 24.8616L88.0063 10.9158L93.8193 24.8616H82.3319H82.3317ZM96.7257 32.0654C96.7257 32.0654 97.4638 33.8663 99.2169 38.1609H104.43L90.313 4.91275H89.3442L75.5961 38.1609H77.3493L82.009 25.9699H94.2344L96.7258 32.0654H96.7257ZM117.025 37.0526V4.9126H112.227V13.2708V29.618V38.1609H135.34V37.0526H117.025H117.025ZM156.331 25.4157C155.731 24.0304 154.855 22.9221 153.655 22.0447C152.502 21.1675 150.657 19.9667 148.073 18.4891C145.351 16.8729 143.506 15.5336 142.537 14.3791C141.522 13.2247 141.107 11.9317 141.245 10.5002C141.384 9.25332 141.937 8.19142 142.952 7.26778C143.921 6.34414 145.351 5.97481 147.243 6.20557C149.227 6.39039 150.887 7.26778 152.225 8.83775C152.548 9.20723 152.871 9.62281 153.148 10.0385L154.163 9.20739C153.056 7.7296 151.949 6.66754 150.795 6.11339C149.642 5.55924 148.442 5.1899 147.104 5.05133C144.705 4.82042 142.629 5.32833 140.922 6.66754C139.169 8.0066 138.2 9.80763 137.97 12.0703C137.785 13.548 138.016 14.9795 138.57 16.365C139.169 17.7503 140.046 18.9048 141.245 19.8745C142.491 20.8443 144.29 21.9988 146.689 23.3841C149.411 24.908 151.257 26.247 152.225 27.4016C153.194 28.6022 153.563 29.9875 153.379 31.5576C153.24 33.1276 152.456 34.5129 151.118 35.6212C149.734 36.7758 147.935 37.2837 145.72 36.9604C142.399 36.4063 140.507 35.021 138.016 31.4651L137.14 32.4349C138.939 35.3903 142.953 37.8377 145.997 38.1611C149.042 38.4843 151.533 37.8841 153.517 36.4063C155.501 34.8824 156.654 32.8044 156.931 30.0798C157.116 28.3713 156.931 26.8474 156.331 25.4159L156.331 25.4157Z" fill="#424242"/>
<defs>
<linearGradient id="paint0_linear" x1="6.11544" y1="36.0792" x2="36.0044" y2="6.21854" gradientUnits="userSpaceOnUse">
<stop stop-color="#667FC4"/>
<stop offset="1" stop-color="#7BC4E6"/>
</linearGradient>
</defs>
</svg>
