<svg width="26" height="25" viewBox="0 0 26 25" fill="none" xmlns="http://www.w3.org/2000/svg">
<path d="M19.2764 14.9591L17.5375 13.2202C16.9164 12.5991 15.8607 12.8476 15.6123 13.6549C15.4259 14.2139 14.8049 14.5244 14.246 14.4001C13.0039 14.0896 11.327 12.4749 11.0165 11.1707C10.8302 10.6118 11.2028 9.99071 11.7618 9.80442C12.5691 9.556 12.8176 8.50023 12.1965 7.87918L10.4576 6.14026C9.96075 5.70553 9.21549 5.70553 8.78076 6.14026L7.60078 7.32024C6.42079 8.56233 7.72499 11.8539 10.6439 14.7728C13.5628 17.6917 16.8543 19.058 18.0964 17.8159L19.2764 16.6359C19.7112 16.1391 19.7112 15.3938 19.2764 14.9591Z" fill="#7BC4E6"/>
<mask id="path-2-inside-1" fill="white">
<path fill-rule="evenodd" clip-rule="evenodd" d="M12.9802 24.9213C19.862 24.9213 25.4409 19.3425 25.4409 12.4607C25.4409 5.57883 19.862 0 12.9802 0C6.09836 0 0.519531 5.57883 0.519531 12.4607C0.519531 14.8685 1.20245 17.1167 2.38516 19.0224L1.12643 24.5164L6.01535 22.7946C8.00369 24.1374 10.4004 24.9213 12.9802 24.9213Z"/>
</mask>
<path d="M2.38516 19.0224L3.35991 19.2457L3.45179 18.8446L3.23482 18.4951L2.38516 19.0224ZM1.12643 24.5164L0.151689 24.2931L-0.25374 26.0627L1.45862 25.4596L1.12643 24.5164ZM6.01535 22.7946L6.575 21.9659L6.15789 21.6842L5.68317 21.8514L6.01535 22.7946ZM24.4409 12.4607C24.4409 18.7902 19.3098 23.9213 12.9802 23.9213V25.9213C20.4143 25.9213 26.4409 19.8948 26.4409 12.4607H24.4409ZM12.9802 1C19.3098 1 24.4409 6.13112 24.4409 12.4607H26.4409C26.4409 5.02655 20.4143 -1 12.9802 -1V1ZM1.51953 12.4607C1.51953 6.13112 6.65065 1 12.9802 1V-1C5.54608 -1 -0.480469 5.02655 -0.480469 12.4607H1.51953ZM3.23482 18.4951C2.14754 16.7432 1.51953 14.6768 1.51953 12.4607H-0.480469C-0.480469 15.0601 0.257368 17.4903 1.5355 19.5497L3.23482 18.4951ZM2.10118 24.7397L3.35991 19.2457L1.41042 18.7991L0.151689 24.2931L2.10118 24.7397ZM5.68317 21.8514L0.79425 23.5732L1.45862 25.4596L6.34754 23.7378L5.68317 21.8514ZM12.9802 23.9213C10.606 23.9213 8.40324 23.2005 6.575 21.9659L5.45571 23.6234C7.60414 25.0742 10.1948 25.9213 12.9802 25.9213V23.9213Z" fill="#7BC4E6" mask="url(#path-2-inside-1)"/>
</svg>
